<?xml version="1.0" encoding="UTF-8"?>
<svg width="500px" height="500px" viewBox="0 0 500 500" version="1.1" xmlns="http://www.w3.org/2000/svg" xmlns:xlink="http://www.w3.org/1999/xlink">
    <!-- Generator: Sketch 52.4 (67378) - http://www.bohemiancoding.com/sketch -->
    <title>countdown</title>
    <desc>Created with Sketch.</desc>
    <defs>
        <radialGradient cx="0%" cy="0%" fx="0%" fy="0%" r="141.421356%" id="radialGradient-1">
            <stop stop-color="#FFFFFF" stop-opacity="0.05" offset="0%"></stop>
            <stop stop-color="#FFFFFF" stop-opacity="0" offset="100%"></stop>
        </radialGradient>
    </defs>
    <g id="Mockups-Events" stroke="none" stroke-width="1" fill="none" fill-rule="evenodd">
        <g id="countdown">
            <rect id="Rectangle-Copy-4" fill="url(#radialGradient-1)" fill-rule="nonzero" x="0" y="0" width="500" height="500" rx="250"></rect>
            <circle id="Oval-Copy-17" stroke="#FFFFFF" stroke-width="5" fill-rule="nonzero" cx="316" cy="412" r="15"></circle>
            <circle id="Oval-Copy-16" fill="#FFFFFF" fill-rule="nonzero" cx="419" cy="230" r="10"></circle>
            <path d="M252.827406,67.8753691 L255.550762,79.8054253 L252.926164,90.8467276 L264.2374,87.4456203 L275.576357,90.7469931 L271.934373,80.040285 L275.775301,67.9333578 L264.232809,70.650768 L252.827406,67.8753691 Z" id="Rectangle-Copy-35" stroke="#FFFFFF" stroke-width="5" fill-rule="nonzero" transform="translate(264.490381, 79.490381) rotate(-330.000000) translate(-264.490381, -79.490381) "></path>
            <polygon id="Rectangle-Copy-36" fill="#FFFFFF" fill-rule="nonzero" transform="translate(59.660254, 243.660254) rotate(-330.000000) translate(-59.660254, -243.660254) " points="49.660254 233.660254 59.4949534 236.053437 69.660254 233.660254 66.3771983 244.008722 69.660254 253.660254 59.4992159 250.701836 49.660254 253.660254 51.9892206 243.86263"></polygon>
            <path d="M303.037594,129 L180.380812,129 C177.961639,129 176,130.9765 176,133.414 L176,137.828 C176,140.2655 177.961639,142.242 180.380812,142.242 L303.037594,142.242 C305.456767,142.242 307.418406,140.2655 307.418406,137.828 L307.418406,133.414 C307.418406,130.9765 305.456767,129 303.037594,129 Z" id="Path-Copy-27" fill="#000000" opacity="0.200000003"></path>
            <path d="M180.380812,385.242 L303.037594,385.242 C305.456767,385.242 307.418406,383.2655 307.418406,380.828 L307.418406,376.414 C307.418406,373.9765 305.456767,372 303.037594,372 L180.380812,372 C177.961639,372 176,373.9765 176,376.414 L176,380.828 C176,383.2655 177.961639,385.242 180.380812,385.242 Z" id="Path-Copy-28" fill="#000000" opacity="0.200000003"></path>
            <path d="M258.142213,248.033671 L291.454008,211.443832 C298.880128,203.286201 303,192.622307 303,181.556569 L303,142 L180,142 L180,181.556569 C180,192.622808 184.119872,203.286702 191.545992,211.443832 L224.857787,248.033671 C227.085673,250.48081 228.321784,253.679527 228.321784,257 C228.321784,260.319972 227.085673,263.51919 224.857787,265.966329 L191.54649,302.555667 C184.119872,310.713298 180,321.377693 180,332.443431 L180,372 L303,372 L303,332.443431 C303,321.377192 298.880128,310.712797 291.45351,302.555667 L258.142213,265.966329 C255.914327,263.51919 254.678216,260.320473 254.678216,257 C254.678714,253.680028 255.914824,250.48081 258.142213,248.033671 Z" id="Path-Copy-29" fill="#000000" opacity="0.200000003"></path>
            <g id="Group-25" transform="translate(185.000000, 122.000000)">
                <path d="M127.037594,9.41469125e-14 L4.38081203,9.41469125e-14 C1.9616391,9.41469125e-14 4.26325641e-14,1.9765 4.26325641e-14,4.414 L4.26325641e-14,8.828 C4.26325641e-14,11.2655 1.9616391,13.242 4.38081203,13.242 L127.037594,13.242 C129.456767,13.242 131.418406,11.2655 131.418406,8.828 L131.418406,4.414 C131.418406,1.9765 129.456767,9.41469125e-14 127.037594,9.41469125e-14 Z" id="Path" fill="#4D4D4D"></path>
                <path d="M4.38081203,256.242 L127.037594,256.242 C129.456767,256.242 131.418406,254.2655 131.418406,251.828 L131.418406,247.414 C131.418406,244.9765 129.456767,243 127.037594,243 L4.38081203,243 C1.9616391,243 4.26325641e-14,244.9765 4.26325641e-14,247.414 L4.26325641e-14,251.828 C4.96845672e-14,254.2655 1.9616391,256.242 4.38081203,256.242 Z" id="Path" fill="#4D4D4D"></path>
                <path d="M83.1422127,119.033671 L116.454008,82.443832 C123.880128,74.286201 128,63.6223068 128,52.5565688 L128,13 L5,13 L5,52.5565688 C5,63.6228079 9.11987199,74.2867021 16.5459923,82.443832 L49.8577873,119.033671 C52.0856731,121.48081 53.321784,124.679527 53.321784,128 C53.321784,131.319972 52.0856731,134.51919 49.8577873,136.966329 L16.5464899,173.555667 C9.11987199,181.713298 5,192.377693 5,203.443431 L5,243 L128,243 L128,203.443431 C128,192.377192 123.880128,181.712797 116.45351,173.555667 L83.1422127,136.966329 C80.9143269,134.51919 79.678216,131.320473 79.678216,128 C79.6787136,124.680028 80.9148245,121.48081 83.1422127,119.033671 Z" id="Path" fill="#FFFFFF"></path>
                <path d="M57.1521568,173.555667 L67.883747,136.966329 C68.6014807,134.51919 69,131.319471 69,128 C69,124.680028 68.6014807,121.48081 67.8842458,119.033671 L57.1521568,82.443832 C54.7595449,74.2867021 53.4323111,63.6223068 53.4323111,52.5565688 L53.4323111,13 L5,13 L5,52.5565688 C5,63.6228079 9.12883918,74.2867021 16.5725207,82.443832 L49.9608541,119.033671 C52.1938589,121.48081 53.4328099,124.679527 53.4328099,128 C53.4328099,131.319471 52.1938589,134.51919 49.9608541,136.966329 L16.5730195,173.555667 C9.12933796,181.712797 5,192.377693 5,203.443431 L5,243 L53.4323111,243 L53.4323111,203.443932 C53.4323111,192.377192 54.7600436,181.712797 57.1521568,173.555667 Z" id="Path" fill="#000000" opacity="0.100000001"></path>
                <path d="M48.3885047,8.8275 L48.3885047,4.414 C48.3885047,1.9765 50.3465327,9.41469125e-14 52.7612523,9.41469125e-14 L4.66350467,9.41469125e-14 C2.24878505,9.41469125e-14 0.290757009,1.9765 0.290757009,4.414 L0.290757009,8.828 C0.290757009,11.2655 2.24878505,13.242 4.66350467,13.242 L52.7612523,13.242 C50.3455421,13.2415 48.3885047,11.265 48.3885047,8.8275 Z" id="Path" fill="#000000" opacity="0.5"></path>
                <path d="M48.3885047,251.586 L48.3885047,247.172 C48.3885047,244.7345 50.3465327,242.758 52.7612523,242.758 L4.66350467,242.758 C2.24878505,242.758 0.290757009,244.7345 0.290757009,247.172 L0.290757009,251.586 C0.290757009,254.0235 2.24878505,256 4.66350467,256 L52.7612523,256 C50.3455421,256 48.3885047,254.0235 48.3885047,251.586 Z" id="Path" fill="#000000" opacity="0.5"></path>
                <path d="M105.97133,182.779078 L97.9614434,173.919673 C97.1349481,173.005516 95.9683638,172.485289 94.7449333,172.485289 L72.5457242,172.485289 C70.1359367,172.485289 68.1819081,170.504114 68.1819081,168.060849 L68.1819081,123.36689 C68.1819081,118.618686 69.6697973,113.885016 72.8210578,110.372228 C72.8413248,110.350176 72.8610974,110.327622 72.88087,110.305069 L96.6638655,84 L40.2956006,84 C38.3974296,84 37.4048443,86.2878985 38.6870984,87.7067464 L59.1181414,110.305069 C59.1384083,110.327121 59.1586752,110.349674 59.1784478,110.372228 C62.3297084,113.884515 63.8180919,118.618686 63.8180919,123.36689 L63.8180919,168.060348 C63.8180919,170.503613 61.8640633,172.484788 59.4542758,172.484788 L37.2550667,172.484788 C36.0321305,172.484788 34.8650519,173.005015 34.0385566,173.919172 L26.0291646,182.778076 C20.8650519,188.489552 18,195.957173 18,203.705957 L18,227.78778 C18,229.009663 18.9767672,230 20.1819081,230 L111.818092,230 C113.023233,230 114,229.009663 114,227.78778 L114,203.705957 C113.999506,195.958175 111.134948,188.491056 105.97133,182.779078 Z" id="Path" fill="#F25F60"></path>
                <g id="Group" transform="translate(17.000000, 83.000000)" fill="#000000" opacity="0.100000001">
                    <path d="M21.1659903,4.07435836 L41.6313495,26.6963038 C41.6516505,26.7183788 41.6719515,26.7409556 41.6917573,26.7635324 C44.8483107,30.2794915 46.338699,35.0186109 46.338699,39.7717782 L46.338699,65.3889113 L49.7576796,53.6309181 C50.2226214,52.0314778 50.5360485,50.0953925 50.7093495,48.0298669 L50.7093495,41.2753925 C50.5360485,39.2103686 50.2226214,37.2737816 49.7576796,35.6743413 L39.4898447,0.363737201 L22.776699,0.363737201 C21.5091262,0.36340273 20.9722233,1.60027645 21.1659903,4.07435836 Z" id="Path"></path>
                    <path d="M35.4113301,120.193823 C35.4113301,109.112631 36.7294078,98.4348123 39.1041262,90.266529 L39.4898447,88.9400171 L19.7310583,88.9400171 C18.506068,88.9400171 17.3370291,89.4607884 16.5091456,90.375901 L8.48630097,99.2440648 C3.31351456,104.962515 0.443650485,112.436939 0.443650485,120.193823 L0.443650485,144.301321 C0.443650485,145.524481 1.42205825,146.515853 2.6292233,146.515853 L35.4113301,146.515853 L35.4113301,120.193823 Z" id="Path"></path>
                </g>
            </g>
        </g>
    </g>
</svg>