<?xml version="1.0" encoding="UTF-8"?>
<svg width="500px" height="500px" viewBox="0 0 500 500" version="1.1" xmlns="http://www.w3.org/2000/svg" xmlns:xlink="http://www.w3.org/1999/xlink">
    <!-- Generator: Sketch 52.4 (67378) - http://www.bohemiancoding.com/sketch -->
    <title>discover</title>
    <desc>Created with Sketch.</desc>
    <defs>
        <radialGradient cx="0%" cy="0%" fx="0%" fy="0%" r="141.421356%" id="radialGradient-1">
            <stop stop-color="#FFFFFF" stop-opacity="0.05" offset="0%"></stop>
            <stop stop-color="#FFFFFF" stop-opacity="0" offset="100%"></stop>
        </radialGradient>
    </defs>
    <g id="Mockups-Events" stroke="none" stroke-width="1" fill="none" fill-rule="evenodd">
        <g id="discover">
            <rect id="Rectangle-Copy-4" fill="url(#radialGradient-1)" fill-rule="nonzero" x="0" y="0" width="500" height="500" rx="250"></rect>
            <circle id="Oval-Copy-17" stroke="#FFFFFF" stroke-width="5" fill-rule="nonzero" cx="383" cy="321" r="15"></circle>
            <circle id="Oval-Copy-16" fill="#FFFFFF" fill-rule="nonzero" cx="229" cy="416" r="10"></circle>
            <path d="M258.827406,70.8753691 L261.550762,82.8054253 L258.926164,93.8467276 L270.2374,90.4456203 L281.576357,93.7469931 L277.934373,83.040285 L281.775301,70.9333578 L270.232809,73.650768 L258.827406,70.8753691 Z" id="Rectangle-Copy-35" stroke="#FFFFFF" stroke-width="5" fill-rule="nonzero" transform="translate(270.490381, 82.490381) rotate(-330.000000) translate(-270.490381, -82.490381) "></path>
            <polygon id="Rectangle-Copy-36" fill="#FFFFFF" fill-rule="nonzero" transform="translate(79.660254, 197.660254) rotate(-330.000000) translate(-79.660254, -197.660254) " points="69.660254 187.660254 79.4949534 190.053437 89.660254 187.660254 86.3771983 198.008722 89.660254 207.660254 79.4992159 204.701836 69.660254 207.660254 71.9892206 197.86263"></polygon>
            <path d="M259.803531,313 L226.901339,251.546893 L193.999146,313 L259.803531,313 Z M265.692991,324.000046 L188.109686,324.000046 L168.303571,360.99294 C166.462532,364.430977 162.179059,365.72756 158.736533,363.890594 C155.294008,362.051956 153.995732,357.774067 155.836771,354.336029 L221.87128,231 L228.104876,234.32856 L232.465126,232 L298.50131,355.336029 C300.342349,358.774067 299.042398,363.051956 295.599872,364.890594 C292.157347,366.72756 287.875548,365.430977 286.034509,361.99294 L265.692991,324.000046 Z" id="Combined-Shape" fill="#000000" opacity="0.100000001"></path>
            <path d="M268.245531,226.159253 L195.063262,251.955811 C191.841862,253.091785 188.308876,251.40539 187.171418,248.188191 L185.89665,244.581056 L158.738434,254.152554 L159.005115,254.907066 C159.571331,256.513156 158.728708,258.274836 157.120521,258.840314 L148.252039,261.967171 C146.643852,262.534322 144.879871,261.692797 144.31198,260.086707 L135.177142,234.237017 C134.609251,232.630927 135.451874,230.869246 137.060062,230.302096 L145.930218,227.176911 C147.538406,226.609761 149.302386,227.451285 149.868602,229.057376 L151.980308,235.031968 L188.952199,222 L190.813219,227.26617 L271.001523,199 L274.184553,208.006073 L338.402199,189 L345.362634,208.69301 C346.05784,210.658798 344.962263,212.805271 342.960404,213.397517 L275.538834,233.351517 C273.128229,234.065892 270.581932,232.767636 269.744335,230.400325 L268.245531,226.159253 Z" id="Combined-Shape" fill="#000000" opacity="0.100000001"></path>
            <path d="M358.000333,165.758853 C353.314813,152.500243 341.90506,144.432984 332.517267,147.7422 C323.129475,151.049742 319.318406,164.482346 324.003927,177.740957 C328.689447,191.00124 340.0992,199.066825 349.485317,195.759283 C358.87311,192.450068 362.685853,179.019137 358.000333,165.758853 Z" id="Path" fill="#FFFFFF"></path>
            <polygon id="Path" fill="#FFFFFF" points="195 308 274.519828 308 274.519828 319.000046 195 319.000046"></polygon>
            <path d="M165.836771,352.336029 L231.87128,229 L244.33808,235.65691 L178.303571,358.99294 C176.462532,362.430977 172.179059,363.72756 168.736533,361.890594 C165.294008,360.051956 163.995732,355.774067 165.836771,352.336029 Z" id="Path" fill="#FFFFFF"></path>
            <path d="M228,235.65691 L240.465126,229 L306.50131,352.336029 C308.342349,355.774067 307.042398,360.051956 303.599872,361.890594 C300.157347,363.72756 295.875548,362.430977 294.034509,358.99294 L228,235.65691 Z" id="Path" fill="#FFFFFF"></path>
            <polygon id="Path" fill="#FFFFFF" points="147 229.48083 193.756366 213 200.514102 232.122514 153.756061 248.60167"></polygon>
            <path d="M162.120521,252.840314 L153.252039,255.967171 C151.643852,256.534322 149.879871,255.692797 149.31198,254.086707 L140.177142,228.237017 C139.609251,226.630927 140.451874,224.869246 142.060062,224.302096 L150.930218,221.176911 C152.538406,220.609761 154.302386,221.451285 154.868602,223.057376 L164.005115,248.907066 C164.571331,250.513156 163.728708,252.274836 162.120521,252.840314 Z" id="Path" fill="#5D5D5D"></path>
            <path d="M156.691459,228 L142,233.177969 L149.221765,253.612123 C149.789656,255.218213 151.553637,256.061411 153.161824,255.49426 L162.030306,252.367403 C163.638493,251.800252 164.481116,250.040245 163.9149,248.434154 L156.691459,228 Z" id="Path" fill="#2E2E2E"></path>
            <path d="M284.2247,212.577035 L200.056205,242.247882 C196.834805,243.382183 193.301819,241.695788 192.164362,238.478588 L183.354512,213.550728 C182.217054,210.333528 183.907326,206.805148 187.128726,205.669174 L271.29722,176 L284.2247,212.577035 Z" id="Path" fill="#F25F60"></path>
            <path d="M275.001523,189 L185,220.725304 L191.171418,238.188191 C192.308876,241.40539 195.841862,243.091785 199.063262,241.955811 L283.231756,212.286638 L275.001523,189 Z" id="Path" fill="#DF5859"></path>
            <path d="M347.469611,200.503019 L280.048041,220.457019 C277.637435,221.169721 275.091139,219.873138 274.255217,217.505827 L260.270689,177.937449 C259.433092,175.571812 260.600703,172.965261 262.925873,172.008299 L327.951915,145.275259 C329.881739,144.482252 332.082946,145.464309 332.778151,147.430097 L349.873516,195.798512 C350.567046,197.7643 349.471469,199.910773 347.469611,200.503019 Z" id="Path" fill="#DC5859"></path>
            <path d="M342.402199,176 L267,198.316291 L273.744335,217.400325 C274.581932,219.767636 277.128229,221.065892 279.538834,220.351517 L346.960404,200.397517 C348.962263,199.805271 350.05784,197.658798 349.362634,195.69301 L342.402199,176 Z" id="Path" fill="#B74647"></path>
            <path d="M257.449257,229.196586 C257.449257,240.352222 248.394828,249.394846 237.224629,249.394846 C226.054428,249.394846 217,240.352222 217,229.196586 C217,218.042623 226.054428,209 237.224629,209 C248.394828,209 257.449257,218.042623 257.449257,229.196586 Z" id="Path" fill="#EFEFEF"></path>
            <path d="M226,212.304196 L239.383132,249.261005 C249.467806,248.118338 257.304368,239.574272 257.304368,229.196586 C257.304368,218.042623 248.249939,209 237.079739,209 C232.987238,209 229.18287,210.217952 226,212.304196 Z" id="Path" fill="#C5C5C5"></path>
            <path d="M244.332968,229.155468 C244.332968,233.108792 241.124969,236.312608 237.166484,236.312608 C233.209673,236.312608 230,233.108792 230,229.155468 C230,225.203816 233.209673,222 237.166484,222 C241.124969,222 244.332968,225.203816 244.332968,229.155468 Z" id="Path" fill="#2E2E2E"></path>
        </g>
    </g>
</svg>