<?xml version="1.0" encoding="UTF-8"?>
<svg width="500px" height="500px" viewBox="0 0 500 500" version="1.1" xmlns="http://www.w3.org/2000/svg" xmlns:xlink="http://www.w3.org/1999/xlink">
    <!-- Generator: Sketch 52.4 (67378) - http://www.bohemiancoding.com/sketch -->
    <title>game</title>
    <desc>Created with Sketch.</desc>
    <defs>
        <radialGradient cx="0%" cy="0%" fx="0%" fy="0%" r="141.421356%" id="radialGradient-1">
            <stop stop-color="#FFFFFF" stop-opacity="0.05" offset="0%"></stop>
            <stop stop-color="#FFFFFF" stop-opacity="0" offset="100%"></stop>
        </radialGradient>
    </defs>
    <g id="Mockups-Events" stroke="none" stroke-width="1" fill="none" fill-rule="evenodd">
        <g id="game">
            <rect id="Rectangle-Copy-4" fill="url(#radialGradient-1)" fill-rule="nonzero" x="0" y="0" width="500" height="500" rx="250"></rect>
            <circle id="Oval-Copy-17" stroke="#FFFFFF" stroke-width="5" fill-rule="nonzero" cx="316" cy="412" r="15"></circle>
            <circle id="Oval-Copy-16" fill="#FFFFFF" fill-rule="nonzero" cx="419" cy="230" r="10"></circle>
            <path d="M252.827406,67.8753691 L255.550762,79.8054253 L252.926164,90.8467276 L264.2374,87.4456203 L275.576357,90.7469931 L271.934373,80.040285 L275.775301,67.9333578 L264.232809,70.650768 L252.827406,67.8753691 Z" id="Rectangle-Copy-35" stroke="#FFFFFF" stroke-width="5" fill-rule="nonzero" transform="translate(264.490381, 79.490381) rotate(-330.000000) translate(-264.490381, -79.490381) "></path>
            <polygon id="Rectangle-Copy-36" fill="#FFFFFF" fill-rule="nonzero" transform="translate(59.660254, 243.660254) rotate(-330.000000) translate(-59.660254, -243.660254) " points="49.660254 233.660254 59.4949534 236.053437 69.660254 233.660254 66.3771983 244.008722 69.660254 253.660254 59.4992159 250.701836 49.660254 253.660254 51.9892206 243.86263"></polygon>
            <path d="M312.488421,340.994709 C307.002105,341.087605 289.532632,339.863068 273.271579,335.374506 C254.265263,330.130109 230.656842,330.151222 211.642105,335.374506 C195.254737,339.875735 179.974737,341.091827 172.425263,340.994709 C143.650526,340.623125 122,311.643821 122,281.997354 C122,249.551343 148.471579,223 180.829474,223 L304.088421,223 C336.442105,223.004223 362,249.551343 362,281.997354 C362,311.643821 341.263158,340.504894 312.488421,340.994709 Z" id="Path-Copy-41" fill="#000000" opacity="0.200000003"></path>
            <g id="Group-33" transform="translate(130.000000, 112.000000)">
                <path d="M122,105 L122,52.5 C122,42.105 130.576471,33.6 141.058824,33.6 C151.541176,33.6 160.117647,42.105 160.117647,52.5 L160.117647,67.2 C160.117647,76.44 167.741176,84 177.058824,84 C186.376471,84 194,76.44 194,67.2 L194,0" id="Path" stroke="#FFFFFF" stroke-width="1.49625935" stroke-linecap="round"></path>
                <path d="M190.488421,221.994709 C185.002105,222.087605 167.532632,220.863068 151.271579,216.374506 C132.265263,211.130109 108.656842,211.151222 89.6421053,216.374506 C73.2547368,220.875735 57.9747368,222.091827 50.4252632,221.994709 C21.6505263,221.623125 0,192.643821 0,162.997354 C0,130.551343 26.4715789,104 58.8294737,104 L182.088421,104 C214.442105,104.004223 240,130.551343 240,162.997354 C240,192.643821 219.263158,221.504894 190.488421,221.994709 Z" id="Path" fill="#FFFFFF"></path>
                <path d="M114,121 L134,121" id="Path" stroke="#AFB6BB" stroke-width="1.49625935" stroke-linecap="round"></path>
                <circle id="Oval" fill="#43B05C" cx="151.5" cy="163.5" r="12.5"></circle>
                <circle id="Oval" fill="#DD352E" cx="210.5" cy="163.5" r="12.5"></circle>
                <circle id="Oval" fill="#EBBA16" cx="181.5" cy="192.5" r="12.5"></circle>
                <circle id="Oval" fill="#366DB6" cx="181.5" cy="134.5" r="12.5"></circle>
                <polygon id="Path" fill="#4D4D4D" points="93 150.857143 76.1428571 150.857143 76.1428571 134 50.8571429 134 50.8571429 150.857143 34 150.857143 34 176.142857 50.8571429 176.142857 50.8571429 193 76.1428571 193 76.1428571 176.142857 93 176.142857"></polygon>
            </g>
        </g>
    </g>
</svg>