<?xml version="1.0" encoding="UTF-8"?>
<svg width="500px" height="500px" viewBox="0 0 500 500" version="1.1" xmlns="http://www.w3.org/2000/svg" xmlns:xlink="http://www.w3.org/1999/xlink">
    <!-- Generator: Sketch 52.4 (67378) - http://www.bohemiancoding.com/sketch -->
    <title>page</title>
    <desc>Created with Sketch.</desc>
    <defs>
        <radialGradient cx="0%" cy="0%" fx="0%" fy="0%" r="141.421356%" id="radialGradient-1">
            <stop stop-color="#FFFFFF" stop-opacity="0.05" offset="0%"></stop>
            <stop stop-color="#FFFFFF" stop-opacity="0" offset="100%"></stop>
        </radialGradient>
    </defs>
    <g id="Mockups-Events" stroke="none" stroke-width="1" fill="none" fill-rule="evenodd">
        <g id="page">
            <rect id="Rectangle-Copy-4" fill="url(#radialGradient-1)" fill-rule="nonzero" x="0" y="0" width="500" height="500" rx="250"></rect>
            <circle id="Oval-Copy-17" stroke="#FFFFFF" stroke-width="5" fill-rule="nonzero" cx="79" cy="235" r="15"></circle>
            <circle id="Oval-Copy-16" fill="#FFFFFF" fill-rule="nonzero" cx="268" cy="410" r="10"></circle>
            <path d="M217.827406,84.8753691 L220.550762,96.8054253 L217.926164,107.846728 L229.2374,104.44562 L240.576357,107.746993 L236.934373,97.040285 L240.775301,84.9333578 L229.232809,87.650768 L217.827406,84.8753691 Z" id="Rectangle-Copy-35" stroke="#FFFFFF" stroke-width="5" fill-rule="nonzero" transform="translate(229.490381, 96.490381) rotate(-330.000000) translate(-229.490381, -96.490381) "></path>
            <polygon id="Rectangle-Copy-36" fill="#FFFFFF" fill-rule="nonzero" transform="translate(397.660254, 285.660254) rotate(-330.000000) translate(-397.660254, -285.660254) " points="387.660254 275.660254 397.494953 278.053437 407.660254 275.660254 404.377198 286.008722 407.660254 295.660254 397.499216 292.701836 387.660254 295.660254 389.989221 285.86263"></polygon>
            <g id="flyer-2" transform="translate(140.000000, 123.000000)">
                <g id="flyer">
                    <path d="M216.591,36.6445 L52.1445,0.0925 C50.0105,-0.3805 47.8325,1.006 47.359,3.138 L0.363,214.569 C-0.1175,216.7315 1.246,218.874 3.4085,219.3545 L167.856,255.9065 C169.9905,256.38 172.1685,254.992 172.6415,252.861 L219.637,41.4295 C220.117,39.2675 218.7535,37.1255 216.591,36.6445 Z" id="Path" fill="#000000" opacity="0.200000003"></path>
                    <path d="M218.964,215.4145 L173.604,3.626 C173.147,1.4915 170.979,0.086 168.842,0.544 L4.1175,35.823 C1.9515,36.287 0.5715,38.419 1.0355,40.585 L46.395,252.3735 C46.8525,254.5085 49.0195,255.9125 51.157,255.4555 L215.8815,220.1755 C218.0475,219.7125 219.428,217.5805 218.964,215.4145 Z" id="Path" fill="#000000" opacity="0.200000003"></path>
                    <path d="M194.23,15.6925 L25.7695,15.6925 C23.5545,15.6925 21.7585,17.4885 21.7585,19.7035 C21.7585,58.2685571 21.7585,87.1923499 21.7585,106.474878 C21.7585,135.323905 21.7585,178.597446 21.7585,236.2955 C21.7585,238.5105 23.5545,240.3065 25.7695,240.3065 L194.23,240.3065 C196.445,240.3065 198.241,238.5105 198.241,236.2955 L198.241,19.7035 C198.241,17.4885 196.445,15.6925 194.23,15.6925 Z" id="Path" fill="#FFFFFF"></path>
                    <path d="M33.7915,236.2955 L33.7915,19.7035 C33.7915,17.4885 35.5875,15.6925 37.8025,15.6925 L25.77,15.6925 C23.555,15.6925 21.759,17.4885 21.759,19.7035 L21.759,236.2955 C21.759,238.5105 23.555,240.3065 25.77,240.3065 L37.803,240.3065 C35.587,240.3065 33.7915,238.511 33.7915,236.2955 Z" id="Path" fill="#000000" opacity="0.100000001"></path>
                    <path d="M163.145,164.098 L173.373,150.4605 C175.321,147.864 173.3995,144.043 170.164,144.043 L49.8355,144.043 C46.6,144.043 44.679,147.864 46.6265,150.4605 L56.8545,164.098 L46.6265,177.7355 C44.6785,180.332 46.6,184.153 49.8355,184.153 L170.1645,184.153 C173.4,184.153 175.321,180.332 173.3735,177.7355 L163.145,164.098 Z" id="Path" fill="#000000" opacity="0.100000001"></path>
                    <polygon id="Path" fill="#000000" opacity="0.100000001" points="57.8575 176.131 66.882 164.098 57.8575 152.0655 162.1425 152.0655 153.1175 164.098 162.1425 176.131"></polygon>
                    <path d="M158.1315,200.197 L61.8685,200.197 C59.6535,200.197 57.8575,198.401 57.8575,196.186 C57.8575,193.971 59.6535,192.175 61.8685,192.175 L158.1315,192.175 C160.3465,192.175 162.1425,193.971 162.1425,196.186 C162.1425,198.401 160.3465,200.197 158.1315,200.197 Z" id="Path" fill="#000000" opacity="0.200000003"></path>
                    <path d="M158.1315,216.2405 L61.8685,216.2405 C59.6535,216.2405 57.8575,214.4445 57.8575,212.2295 C57.8575,210.0145 59.6535,208.2185 61.8685,208.2185 L158.1315,208.2185 C160.3465,208.2185 162.1425,210.0145 162.1425,212.2295 C162.1425,214.4445 160.3465,216.2405 158.1315,216.2405 Z" id="Path" fill="#000000" opacity="0.200000003"></path>
                    <path d="M148.8415,44.507 C137.838,35.31 123.503,36.15 109.9995,46.5965 C96.497,36.15 82.161,35.3095 71.1575,44.507 C59.035,54.639 55.0425,73.6145 62.4395,85.943 C75.337,107.439 106.5905,126.61 107.915,127.416 C109.183,128.187 110.8165,128.187 112.0845,127.416 C113.4085,126.6105 144.662,107.4395 157.56,85.943 C164.9565,73.6145 160.964,54.639 148.8415,44.507 Z" id="Path" fill="#F25F60"></path>
                    <path d="M71.3205,89.9595 C63.9235,77.6315 67.9155,58.6555 80.0385,48.5235 C87.415,42.358 96.29,40.7105 105.4065,43.4365 C93.3065,36.0945 80.92,36.346 71.1575,44.5065 C59.035,54.6385 55.0425,73.614 62.4395,85.9425 C75.337,107.4385 106.5905,126.6095 107.915,127.4155 C108.9035,128.0165 110.1125,128.1425 111.1995,127.8065 C101.337,121.1505 81.078,106.2215 71.3205,89.9595 Z" id="Path" fill="#000000" opacity="0.200000003"></path>
                </g>
            </g>
        </g>
    </g>
</svg>