<?xml version="1.0" encoding="UTF-8"?>
<svg width="500px" height="500px" viewBox="0 0 500 500" version="1.1" xmlns="http://www.w3.org/2000/svg" xmlns:xlink="http://www.w3.org/1999/xlink">
    <!-- Generator: Sketch 52.4 (67378) - http://www.bohemiancoding.com/sketch -->
    <title>pin</title>
    <desc>Created with Sketch.</desc>
    <defs>
        <radialGradient cx="0%" cy="0%" fx="0%" fy="0%" r="141.421356%" id="radialGradient-1">
            <stop stop-color="#FFFFFF" stop-opacity="0.05" offset="0%"></stop>
            <stop stop-color="#FFFFFF" stop-opacity="0" offset="100%"></stop>
        </radialGradient>
    </defs>
    <g id="Mockups-Events" stroke="none" stroke-width="1" fill="none" fill-rule="evenodd">
        <g id="pin">
            <rect id="Rectangle-Copy-4" fill="url(#radialGradient-1)" fill-rule="nonzero" x="0" y="0" width="500" height="500" rx="250"></rect>
            <circle id="Oval-Copy-17" stroke="#FFFFFF" stroke-width="5" fill-rule="nonzero" cx="150" cy="401" r="15"></circle>
            <circle id="Oval-Copy-16" fill="#FFFFFF" fill-rule="nonzero" cx="417" cy="270" r="10"></circle>
            <path d="M252.827406,67.8753691 L255.550762,79.8054253 L252.926164,90.8467276 L264.2374,87.4456203 L275.576357,90.7469931 L271.934373,80.040285 L275.775301,67.9333578 L264.232809,70.650768 L252.827406,67.8753691 Z" id="Rectangle-Copy-35" stroke="#FFFFFF" stroke-width="5" fill-rule="nonzero" transform="translate(264.490381, 79.490381) rotate(-330.000000) translate(-264.490381, -79.490381) "></path>
            <polygon id="Rectangle-Copy-36" fill="#FFFFFF" fill-rule="nonzero" transform="translate(59.660254, 243.660254) rotate(-330.000000) translate(-59.660254, -243.660254) " points="49.660254 233.660254 59.4949534 236.053437 69.660254 233.660254 66.3771983 244.008722 69.660254 253.660254 59.4992159 250.701836 49.660254 253.660254 51.9892206 243.86263"></polygon>
            <path d="M265.451719,135.865681 C271.967813,142.549384 276,151.734815 276,161.741722 C276,179.343431 263.52471,194.029617 247,197.31396 L247,198 L334,198 L334,313.493075 L334,323.251953 L286.251953,371 L276.181818,371 L276.153846,371 L146,371 L146,198 L233,198 L233,197.31396 C216.47529,194.029617 204,179.343431 204,161.741722 C204,141.727907 220.12875,125 240,125 C249.935625,125 258.935625,129.181977 265.451719,135.865681 C271.967813,142.549384 276,151.734815 276,161.741722 C276,179.343431 263.52471,194.029617 247,197.31396 L247,227 L240,227 L240,198 C242.394923,198 244.735485,197.76404 247,197.31396 Z" id="Combined-Shape" fill="#000000" opacity="0.200000003"></path>
            <polygon id="Path" fill="#FFFFFF" points="343 191 343 306.493075 285.153846 364 155 364 155 191"></polygon>
            <polygon id="Path" fill="#000000" opacity="0.100000001" points="343 191 343 306.493075 285.181818 364 249.045455 364 249.045455 191"></polygon>
            <polygon id="Path" fill="#000000" opacity="0.200000003" points="184 234.609418 314.090909 234.609418 314.090909 248.98615 184 248.98615"></polygon>
            <polygon id="Path" fill="#000000" opacity="0.200000003" points="184 263.362881 314.090909 263.362881 314.090909 277.739612 184 277.739612"></polygon>
            <polygon id="Path" fill="#000000" opacity="0.200000003" points="184 292.116343 256.272727 292.116343 256.272727 306.493075 184 306.493075"></polygon>
            <polygon id="Path" fill="#000000" opacity="0.200000003" points="343 308.019532 343 296 275 296 275 364 287.019532 364"></polygon>
            <polygon id="Path" fill="#000000" opacity="0.200000003" points="249 292 256 292 256 306 249 306"></polygon>
            <polygon id="Path" fill="#000000" opacity="0.200000003" points="249 234 314 234 314 248 249 248"></polygon>
            <polygon id="Path" fill="#000000" opacity="0.200000003" points="249 263 314 263 314 277 249 277"></polygon>
            <polygon id="Path" fill="#2E2E2E" points="242 162 256 162 256 220 242 220"></polygon>
            <polygon id="Path" fill="#000000" opacity="0.200000003" points="249 162 256 162 256 220 249 220"></polygon>
            <path d="M249,118 C229.12875,118 213,134.727907 213,154.741722 C213,174.755536 229.12875,191 249,191 C268.87125,191 285,174.755536 285,154.741722 C285,134.727907 268.87125,118 249,118 Z" id="Path" fill="#F25F60"></path>
            <path d="M249,191 L249,118 C268.87125,118 285,134.727907 285,154.741722 C285,174.755536 268.87125,191 249,191 Z" id="Path" fill="#000000" opacity="0.200000003"></path>
            <g id="Group-30" transform="translate(146.000000, 118.000000)">
                <g id="Group" transform="translate(38.000000, 73.000000)"></g>
            </g>
        </g>
    </g>
</svg>