<?xml version="1.0" encoding="UTF-8"?>
<svg width="500px" height="500px" viewBox="0 0 500 500" version="1.1" xmlns="http://www.w3.org/2000/svg" xmlns:xlink="http://www.w3.org/1999/xlink">
    <!-- Generator: Sketch 52.4 (67378) - http://www.bohemiancoding.com/sketch -->
    <title>shield</title>
    <desc>Created with Sketch.</desc>
    <defs>
        <radialGradient cx="0%" cy="0%" fx="0%" fy="0%" r="141.421356%" id="radialGradient-1">
            <stop stop-color="#FFFFFF" stop-opacity="0.05" offset="0%"></stop>
            <stop stop-color="#FFFFFF" stop-opacity="0" offset="100%"></stop>
        </radialGradient>
    </defs>
    <g id="Mockups-Events" stroke="none" stroke-width="1" fill="none" fill-rule="evenodd">
        <g id="shield">
            <rect id="Rectangle-Copy-4" fill="url(#radialGradient-1)" fill-rule="nonzero" x="0" y="0" width="500" height="500" rx="250"></rect>
            <circle id="Oval-Copy-17" stroke="#FFFFFF" stroke-width="5" fill-rule="nonzero" cx="79" cy="235" r="15"></circle>
            <circle id="Oval-Copy-16" fill="#FFFFFF" fill-rule="nonzero" cx="268.019238" cy="410" r="10"></circle>
            <path d="M217.827406,84.8753691 L220.550762,96.8054253 L217.926164,107.846728 L229.2374,104.44562 L240.576357,107.746993 L236.934373,97.040285 L240.775301,84.9333578 L229.232809,87.650768 L217.827406,84.8753691 Z" id="Rectangle-Copy-35" stroke="#FFFFFF" stroke-width="5" fill-rule="nonzero" transform="translate(229.490381, 96.490381) rotate(-330.000000) translate(-229.490381, -96.490381) "></path>
            <polygon id="Rectangle-Copy-36" fill="#FFFFFF" fill-rule="nonzero" transform="translate(397.660254, 285.660254) rotate(-330.000000) translate(-397.660254, -285.660254) " points="387.660254 275.660254 397.494953 278.053437 407.660254 275.660254 404.377198 286.008722 407.660254 295.660254 397.499216 292.701836 387.660254 295.660254 389.989221 285.86263"></polygon>
            <path d="M336.371354,295.273639 C329.694328,312.975085 319.596346,328.36652 306.354115,341.015972 C291.281056,355.413693 271.543745,366.854374 247.689914,375.015431 C246.907169,375.282399 246.090308,375.501164 245.269658,375.662457 C244.185565,375.871953 243.082519,375.985043 241.98895,375.999875 L241.774785,375.999875 C240.609196,375.999875 239.437921,375.88493 238.276122,375.662457 C237.455472,375.501164 236.649983,375.282399 235.871028,375.020993 C211.988768,366.872914 192.226819,355.437794 177.138598,341.040073 C163.890681,328.390621 153.794593,313.008457 147.127044,295.30701 C135.003021,263.122561 135.692898,227.667757 136.248211,199.176362 L136.257688,198.738832 C136.369508,196.386178 136.441528,193.914872 136.481329,191.185868 C136.684123,177.787423 147.574327,166.702698 161.273317,165.955559 C189.834992,164.396393 211.930015,155.284264 230.80877,137.284332 L230.973658,137.136017 C234.10843,134.323585 238.058166,132.944252 241.98895,133.001724 C245.779485,133.049927 249.554857,134.427406 252.577808,137.136017 L252.738905,137.284332 C271.621451,155.284264 293.716474,164.396393 322.278148,165.955559 C335.977138,166.702698 346.867343,177.787423 347.070137,191.185868 C347.109937,193.933412 347.181957,196.40101 347.293778,198.738832 L347.299464,198.924226 C347.852882,227.469385 348.538969,262.994639 336.371354,295.273639 Z" id="Path" fill="#000000" opacity="0.100000001"></path>
            <path d="M340.234124,283.931419 C333.935855,301.050102 324.410684,315.934822 311.919622,328.167831 C297.701588,342.091553 279.083881,353.155586 256.583167,361.047966 C255.844823,361.306145 255.074299,361.517708 254.3002,361.673691 C253.277603,361.876289 252.237128,361.985657 251.205592,362 L251.003575,362 C249.904105,362 248.79927,361.888839 247.703375,361.673691 C246.929276,361.517708 246.169479,361.306145 245.434711,361.053345 C222.90718,353.173515 204.266233,342.11486 190.033896,328.191139 C177.537471,315.95813 168.014087,301.082375 161.724757,283.963692 C150.288472,252.838814 150.939216,218.551247 151.463029,190.997841 L151.471968,190.574715 C151.577446,188.299515 151.64538,185.909569 151.682924,183.270409 C151.874213,170.313065 162.146668,159.593269 175.068578,158.870728 C202.010083,157.362892 222.851759,148.550751 240.659611,131.14341 L240.815146,130.999977 C243.772097,128.280136 247.497783,126.946213 251.205592,127.001793 C254.781107,127.048409 258.34232,128.380539 261.193793,130.999977 L261.345752,131.14341 C279.15718,148.550751 299.998856,157.362892 326.940361,158.870728 C339.862271,159.593269 350.134725,170.313065 350.326016,183.270409 C350.363558,185.927498 350.431493,188.313858 350.536971,190.574715 L350.542334,190.754006 C351.064359,218.359406 351.711528,252.715103 340.234124,283.931419 Z" id="Path" fill="#FFFFFF"></path>
            <path d="M340.234124,283.931419 C333.935855,301.050102 324.410684,315.934822 311.919622,328.167831 C297.701588,342.091553 279.083881,353.155586 256.583167,361.047966 C255.844823,361.306145 255.074299,361.517708 254.3002,361.673691 C253.277603,361.876289 252.237128,361.985657 251.205592,362 L251.205592,127.001793 C254.781107,127.048409 258.34232,128.380539 261.193793,130.999977 L261.345752,131.14341 C279.15718,148.550751 299.998856,157.362892 326.940361,158.870728 C339.862271,159.593269 350.134725,170.313065 350.326016,183.270409 C350.363558,185.927498 350.431493,188.313858 350.536971,190.574715 L350.542334,190.754006 C351.064359,218.359406 351.711528,252.715103 340.234124,283.931419 Z" id="Path" fill="#000000" opacity="0.100000001"></path>
            <path d="M309.398884,244.5 C309.398884,276.72393 283.31014,302.95417 251.205592,303.068916 L251,303.068916 C218.800701,303.068916 192.599328,276.793854 192.599328,244.5 C192.599328,212.207939 218.800701,185.932877 251,185.932877 L251.205592,185.932877 C283.31014,186.047623 309.398884,212.277863 309.398884,244.5 Z" id="Path" fill="#F25F60"></path>
            <path d="M309.398884,244.5 C309.398884,276.72393 283.31014,302.95417 251.205592,303.068916 L251.205592,185.932877 C283.31014,186.047623 309.398884,212.277863 309.398884,244.5 Z" id="Path" fill="#000000" opacity="0.100000001"></path>
            <path d="M277.50708,236.066162 L251.205592,262.447006 L251.205592,242.941963 L267.785254,226.31633 C270.470466,223.62159 274.825443,223.62159 277.50708,226.31633 C280.192291,229.009277 280.192291,233.376801 277.50708,236.066162 Z" id="Path" fill="#000000" opacity="0.100000001"></path>
            <path d="M277.945187,235.770887 L251.6437,262.151731 L245.960419,267.851385 C244.617813,269.197859 242.856872,269.870199 241.097719,269.870199 C239.336778,269.870199 237.577624,269.197859 236.233231,267.851385 L224.013909,255.591482 C221.328697,252.898535 221.328697,248.53639 224.013909,245.84165 C226.695545,243.148703 231.050522,243.148703 233.735733,245.84165 L241.097719,253.224844 L268.223362,226.021055 C270.908574,223.326315 275.263551,223.326315 277.945187,226.021055 C280.630399,228.714003 280.630399,233.081526 277.945187,235.770887 Z" id="Path" fill="#FFFFFF"></path>
        </g>
    </g>
</svg>