<?xml version="1.0" encoding="UTF-8"?>
<svg width="500px" height="500px" viewBox="0 0 500 500" version="1.1" xmlns="http://www.w3.org/2000/svg" xmlns:xlink="http://www.w3.org/1999/xlink">
    <!-- Generator: Sketch 52.4 (67378) - http://www.bohemiancoding.com/sketch -->
    <title>tickets</title>
    <desc>Created with Sketch.</desc>
    <defs>
        <radialGradient cx="0%" cy="0%" fx="0%" fy="0%" r="141.421356%" id="radialGradient-1">
            <stop stop-color="#FFFFFF" stop-opacity="0.05" offset="0%"></stop>
            <stop stop-color="#FFFFFF" stop-opacity="0" offset="100%"></stop>
        </radialGradient>
    </defs>
    <g id="Mockups-Events" stroke="none" stroke-width="1" fill="none" fill-rule="evenodd">
        <g id="tickets">
            <rect id="Rectangle-Copy-4" fill="url(#radialGradient-1)" fill-rule="nonzero" x="0" y="0" width="500" height="500" rx="250"></rect>
            <rect id="Rectangle-Copy-22" fill="#000000" fill-rule="nonzero" opacity="0.100000001" transform="translate(187.091577, 272.183170) rotate(13.000000) translate(-187.091577, -272.183170) " x="123.591577" y="151.18317" width="127" height="242" rx="40"></rect>
            <rect id="Rectangle-Copy-31" fill="#000000" fill-rule="nonzero" opacity="0.100000001" transform="translate(272.433521, 242.260505) rotate(36.000000) translate(-272.433521, -242.260505) " x="208.933521" y="116.260505" width="127" height="252" rx="40"></rect>
            <circle id="Oval-Copy-17" stroke="#FFFFFF" stroke-width="5" fill-rule="nonzero" cx="79" cy="235" r="15"></circle>
            <circle id="Oval-Copy-16" fill="#FFFFFF" fill-rule="nonzero" cx="268" cy="410" r="10"></circle>
            <g id="Group-6" transform="translate(125.000000, 114.000000)">
                <g id="Group-4">
                    <path d="M225.87558,16.560717 L201.916663,0 C197.120537,5.24273657 189.065107,6.27253079 183.055699,2.11866611 L63,175.254174 C69.0094078,179.408039 70.8795442,187.298431 67.6528125,193.625703 L91.6111869,210.18642 C96.4073131,204.943684 104.462742,203.913889 110.47215,208.067754 C116.481558,212.221619 118.351694,220.11201 115.124963,226.439283 L139.083337,243 C143.879463,237.757263 151.934893,236.727469 157.944301,240.881334 L278,67.7452837 C271.990592,63.5914191 270.120456,55.7010273 273.347188,49.3737549 L249.388813,32.8130378 C244.592687,38.0557744 236.537258,39.0855686 230.52785,34.9317039 C224.518985,30.7783812 222.648848,22.8874475 225.87558,16.560717 Z" id="Path" fill="#FFFFFF"></path>
                    <polygon id="Rectangle" fill="#F25F60" transform="translate(160.696644, 135.742947) rotate(124.694429) translate(-160.696644, -135.742947) " points="88.7487181 94.4464191 232.563777 94.5874437 232.64457 177.039475 88.8295107 176.898451"></polygon>
                    <g id="Group" transform="translate(161.000000, 23.000000)" fill="#F25F60">
                        <path d="M12.4341969,14.6838129 C11.520829,14.6838129 10.5988394,14.4156475 9.79162694,13.8555755 L2.14520207,8.55485612 C0.0334093264,7.09100719 -0.493056995,4.19028777 0.968870466,2.07625899 C2.43079793,-0.0383093525 5.3282487,-0.565467626 7.43896373,0.898381295 L15.0853886,6.19910072 C17.1971813,7.66294964 17.7236477,10.5636691 16.2617202,12.6776978 C15.3585907,13.9834532 13.9085181,14.6838129 12.4341969,14.6838129 Z" id="Path"></path>
                        <path d="M75.5966839,58.4703237 C74.6833161,58.4703237 73.7613264,58.2016187 72.954114,57.6420863 L57.1633575,46.6953237 C55.0515648,45.2314748 54.5250984,42.3307554 55.9870259,40.2172662 C57.4489534,38.1026978 60.3458653,37.5755396 62.4571192,39.0393885 L78.2478756,49.9861511 C80.3596684,51.45 80.8861347,54.3507194 79.4242073,56.4642086 C78.5210777,57.7694245 77.0710052,58.4703237 75.5966839,58.4703237 Z M44.0157098,36.5767986 C43.102342,36.5767986 42.1803523,36.3080935 41.3731399,35.7485612 L25.5823834,24.8017986 C23.4705907,23.3379496 22.9441244,20.4372302 24.4060518,18.323741 C25.8679793,16.2091727 28.7654301,15.6820144 30.8761451,17.1458633 L46.6669016,28.0926259 C48.7786943,29.5564748 49.3051606,32.4571942 47.8432332,34.571223 C46.9401036,35.8764388 45.4900311,36.5767986 44.0157098,36.5767986 Z" id="Shape" fill-rule="nonzero"></path>
                        <path d="M99.0333264,74.7178058 C98.1199585,74.7178058 97.1979689,74.4491007 96.3907565,73.8895683 L88.7443316,68.5888489 C86.6325389,67.125 86.1060725,64.2242806 87.568,62.1102518 C89.0299275,59.9956835 91.9273782,59.4685252 94.0380933,60.9323741 L101.684518,66.2330935 C103.796311,67.6969424 104.322777,70.5976619 102.86085,72.7116906 C101.958259,74.0169065 100.507648,74.7178058 99.0333264,74.7178058 Z" id="Path"></path>
                    </g>
                    <g id="Asset-2-Copy" transform="translate(127.000000, 104.000000)" fill="#FFFFFF">
                        <ellipse id="Oval" cx="44.2028986" cy="3.51515152" rx="3.53623188" ry="3.51515152"></ellipse>
                        <ellipse id="Oval" cx="45.5289855" cy="12.7424242" rx="3.0942029" ry="3.07575758"></ellipse>
                        <ellipse id="Oval" cx="44.2028986" cy="20.2121212" rx="2.65217391" ry="2.63636364"></ellipse>
                        <ellipse id="Oval" cx="41.9927536" cy="26.8030303" rx="2.21014493" ry="2.1969697"></ellipse>
                        <ellipse id="Oval" cx="38.8985507" cy="31.6363636" rx="1.76811594" ry="1.75757576"></ellipse>
                        <ellipse id="Oval" cx="35.3623188" cy="35.1515152" rx="1.76811594" ry="1.75757576"></ellipse>
                        <ellipse id="Oval" cx="53.4855072" cy="13.6212121" rx="3.0942029" ry="3.07575758"></ellipse>
                        <ellipse id="Oval" cx="52.1594203" cy="21.969697" rx="2.65217391" ry="2.63636364"></ellipse>
                        <ellipse id="Oval" cx="49.9492754" cy="27.6818182" rx="2.21014493" ry="2.1969697"></ellipse>
                        <ellipse id="Oval" cx="46.8550725" cy="32.5151515" rx="1.76811594" ry="1.75757576"></ellipse>
                        <ellipse id="Oval" cx="43.3188406" cy="36.030303" rx="1.76811594" ry="1.75757576"></ellipse>
                        <ellipse id="Oval" cx="39.3405797" cy="38.2272727" rx="1.32608696" ry="1.31818182"></ellipse>
                        <ellipse id="Oval" cx="58.3478261" cy="23.7272727" rx="2.65217391" ry="2.63636364"></ellipse>
                        <ellipse id="Oval" cx="56.1376812" cy="30.3181818" rx="2.21014493" ry="2.1969697"></ellipse>
                        <ellipse id="Oval" cx="53.0434783" cy="35.1515152" rx="1.76811594" ry="1.75757576"></ellipse>
                        <ellipse id="Oval" cx="49.5072464" cy="38.6666667" rx="1.76811594" ry="1.75757576"></ellipse>
                        <ellipse id="Oval" cx="45.5289855" cy="40.8636364" rx="1.32608696" ry="1.31818182"></ellipse>
                        <ellipse id="Oval" cx="42.8768116" cy="41.7424242" rx="1.32608696" ry="1.31818182"></ellipse>
                        <ellipse id="Oval" cx="48.6231884" cy="52.7272727" rx="3.53623188" ry="3.51515152"></ellipse>
                        <ellipse id="Oval" cx="39.3405797" cy="48.7727273" rx="3.0942029" ry="3.07575758"></ellipse>
                        <ellipse id="Oval" cx="33.5942029" cy="43.9393939" rx="2.65217391" ry="2.63636364"></ellipse>
                        <ellipse id="Oval" cx="28.7318841" cy="39.1060606" rx="2.21014493" ry="2.1969697"></ellipse>
                        <ellipse id="Oval" cx="26.5217391" cy="34.2727273" rx="1.76811594" ry="1.75757576"></ellipse>
                        <ellipse id="Oval" cx="25.6376812" cy="29" rx="1.76811594" ry="1.75757576"></ellipse>
                        <ellipse id="Oval" cx="34.9202899" cy="54.9242424" rx="3.0942029" ry="3.07575758"></ellipse>
                        <ellipse id="Oval" cx="28.2898551" cy="50.0909091" rx="2.65217391" ry="2.63636364"></ellipse>
                        <ellipse id="Oval" cx="24.3115942" cy="45.2575758" rx="2.21014493" ry="2.1969697"></ellipse>
                        <ellipse id="Oval" cx="21.2173913" cy="40.4242424" rx="1.76811594" ry="1.75757576"></ellipse>
                        <ellipse id="Oval" cx="20.3333333" cy="35.1515152" rx="1.76811594" ry="1.75757576"></ellipse>
                        <ellipse id="Oval" cx="20.7753623" cy="31.1969697" rx="1.32608696" ry="1.31818182"></ellipse>
                        <ellipse id="Oval" cx="22.9855072" cy="54.4848485" rx="2.65217391" ry="2.63636364"></ellipse>
                        <ellipse id="Oval" cx="19.0072464" cy="49.6515152" rx="2.21014493" ry="2.1969697"></ellipse>
                        <ellipse id="Oval" cx="16.7971014" cy="43.9393939" rx="1.76811594" ry="1.75757576"></ellipse>
                        <ellipse id="Oval" cx="15.0289855" cy="39.5454545" rx="1.76811594" ry="1.75757576"></ellipse>
                        <ellipse id="Oval" cx="15.4710145" cy="35.5909091" rx="1.32608696" ry="1.31818182"></ellipse>
                        <ellipse id="Oval" cx="15.4710145" cy="32.0757576" rx="1.32608696" ry="1.31818182"></ellipse>
                        <ellipse id="Oval" cx="3.53623188" cy="31.6363636" rx="3.53623188" ry="3.51515152"></ellipse>
                        <ellipse id="Oval" cx="11.0507246" cy="25.9242424" rx="3.0942029" ry="3.07575758"></ellipse>
                        <ellipse id="Oval" cx="18.5652174" cy="22.8484848" rx="2.65217391" ry="2.63636364"></ellipse>
                        <ellipse id="Oval" cx="25.1956522" cy="21.530303" rx="2.21014493" ry="2.1969697"></ellipse>
                        <ellipse id="Oval" cx="30.942029" cy="21.969697" rx="1.76811594" ry="1.75757576"></ellipse>
                        <ellipse id="Oval" cx="35.3623188" cy="23.7272727" rx="1.76811594" ry="1.75757576"></ellipse>
                        <path d="M7.50193694,15.9504269 C8.69970569,15.589707 9.99810439,15.9819088 10.7915342,16.9441017 C11.584964,17.9062945 11.717122,19.2489298 11.1263672,20.3457759 C10.5356123,21.4426219 9.33832122,22.077604 8.0929341,21.9545538 C6.84754698,21.8315037 5.79940072,20.9746617 5.43737147,19.7836761 C5.1992795,19.0031821 5.28309566,18.1606056 5.67035277,17.4415909 C6.05760988,16.7225761 6.7165312,16.1861226 7.50193694,15.9504269 Z" id="Path"></path>
                        <ellipse id="Oval" cx="15.0289855" cy="15.8181818" rx="2.65217391" ry="2.63636364"></ellipse>
                        <ellipse id="Oval" cx="21.6594203" cy="14.5" rx="2.21014493" ry="2.1969697"></ellipse>
                        <ellipse id="Oval" cx="27.4057971" cy="14.9393939" rx="1.76811594" ry="1.75757576"></ellipse>
                        <ellipse id="Oval" cx="32.7101449" cy="15.8181818" rx="1.76811594" ry="1.75757576"></ellipse>
                        <ellipse id="Oval" cx="35.8043478" cy="18.0151515" rx="1.32608696" ry="1.31818182"></ellipse>
                        <ellipse id="Oval" cx="14.1449275" cy="8.78787879" rx="2.65217391" ry="2.63636364"></ellipse>
                        <path d="M20.6103795,6.15772956 C21.8276316,6.06728518 22.8881905,6.97473239 22.9792466,8.18460604 C23.0703028,9.39447968 22.1573776,10.4486589 20.9401345,10.5392236 C19.7228914,10.6297883 18.6622418,9.72244587 18.5710646,8.51258123 C18.483264,7.30365779 19.3945663,6.25135253 20.6103795,6.15772956 Z" id="Path"></path>
                        <ellipse id="Oval" cx="26.5217391" cy="7.90909091" rx="1.76811594" ry="1.75757576"></ellipse>
                        <ellipse id="Oval" cx="30.942029" cy="9.66666667" rx="1.76811594" ry="1.75757576"></ellipse>
                        <ellipse id="Oval" cx="34.9202899" cy="11.8636364" rx="1.32608696" ry="1.31818182"></ellipse>
                        <path d="M37.4783833,12.306507 C38.2071547,12.2541729 38.8409094,12.7988313 38.8948728,13.5238596 C38.9488362,14.2488878 38.4026302,14.880494 37.6740612,14.935547 C36.9454922,14.9905999 36.3096892,14.4483101 36.2529937,13.7234883 C36.2171419,13.3718406 36.3280478,13.020979 36.5597427,12.7530582 C36.7914376,12.4851375 37.1235747,12.3236857 37.4783833,12.306507 Z" id="Path"></path>
                    </g>
                    <path d="M134.356112,239 L180,46.388344 L165.735433,43.0739446 L166.947512,30.6001137 L164.362979,30 L63,174.976887 C69.0385759,179.116645 70.9177895,186.980242 67.6753961,193.286027 L91.7506038,209.790505 C96.5694637,204.565572 104.664538,203.539275 110.703113,207.679033 C116.741689,211.818792 118.620903,219.682388 115.37851,225.988173 L134.356112,239 Z" id="Path" fill="#000000" opacity="0.1"></path>
                    <path d="M92.9731118,29.6440816 L64.7111592,23 C62.181812,29.629453 55.0907708,33.533115 48.0024336,31.8665412 L0,236.803109 C7.08833719,238.469683 11.7068158,245.125143 11.0286458,252.190744 L39.2905984,258.834825 C41.8199456,252.205372 48.9109868,248.30171 55.999324,249.968284 C63.0876612,251.634858 67.7061398,258.290317 67.0279698,265.355918 L95.2899224,272 C97.8192696,265.370547 104.910311,261.466885 111.998648,263.133459 L160,58.1974324 C152.911663,56.5314004 148.293184,49.8753993 148.971354,42.8097981 L120.709942,36.1657165 C118.180595,42.7951695 111.089554,46.6988315 104.001217,45.0322577 C96.9123388,43.3646003 92.2949418,36.7096828 92.9731118,29.6440816 Z" id="Path" fill="#FFFFFF"></path>
                    <path d="M50.4431742,68 C50.0986479,68 49.7477806,67.9610932 49.3974417,67.8806859 L40.5190195,65.8352265 C38.0671758,65.2708187 36.5458701,62.8617106 37.1218421,60.4546775 C37.6967571,58.0481632 40.1507146,56.5541427 42.6025583,57.119588 L51.4809805,59.1650473 C53.9328242,59.7294551 55.4541299,62.1385632 54.8781579,64.5455963 C54.386204,66.6076559 52.5119174,68 50.4431742,68 Z" id="Path" fill="#FF6465"></path>
                    <path d="M125.310111,86 C124.955524,86 124.594955,85.9586218 124.233842,85.8731067 L105.362973,81.3805335 C102.839533,80.7802732 101.273804,78.2181327 101.866595,75.6581991 C102.458298,73.0988171 104.982281,71.5098928 107.507353,72.1112565 L126.378222,76.6038297 C128.901662,77.20409 130.467391,79.7662305 129.8746,82.3261642 C129.368281,84.5197625 127.439807,86 125.310111,86 Z M87.5689161,77.015957 C87.2143293,77.015957 86.8537602,76.9745787 86.4926473,76.8890637 L67.6217779,72.3964905 C65.0983382,71.7962302 63.5326092,69.2340897 64.1253999,66.674156 C64.717103,64.1142224 67.2416304,62.5258498 69.7661578,63.1272135 L88.6370272,67.6197867 C91.1604669,68.220047 92.7261959,70.7821875 92.1334052,73.3421212 C91.6265418,75.5357195 89.6986122,77.015957 87.5689161,77.015957 Z" id="Shape" fill="#FF6465" fill-rule="nonzero"></path>
                    <path d="M153.443174,92 C153.098648,92 152.747781,91.9610932 152.397442,91.8806859 L143.51902,89.8352265 C141.067176,89.2708187 139.54587,86.8617106 140.121842,84.4546775 C140.696757,82.0481632 143.151243,80.5541427 145.602558,81.119588 L154.48098,83.1650473 C156.932824,83.7294551 158.45413,86.1385632 157.878158,88.5455963 C157.385676,90.6081746 155.512446,92 153.443174,92 Z" id="Path" fill="#FF6465"></path>
                    <polygon id="Rectangle" fill="#FF6465" transform="translate(76.346047, 164.036613) rotate(103.209351) translate(-76.346047, -164.036613) " points="4.53924892 122.734546 148.089688 122.844786 148.152845 205.33868 4.60240499 205.228441"></polygon>
                    <g id="Asset-2" transform="translate(43.000000, 133.000000)" fill="#FFFFFF">
                        <ellipse id="Oval" cx="44.2028986" cy="3.51515152" rx="3.53623188" ry="3.51515152"></ellipse>
                        <ellipse id="Oval" cx="45.5289855" cy="12.7424242" rx="3.0942029" ry="3.07575758"></ellipse>
                        <ellipse id="Oval" cx="44.2028986" cy="20.2121212" rx="2.65217391" ry="2.63636364"></ellipse>
                        <ellipse id="Oval" cx="41.9927536" cy="26.8030303" rx="2.21014493" ry="2.1969697"></ellipse>
                        <ellipse id="Oval" cx="38.8985507" cy="31.6363636" rx="1.76811594" ry="1.75757576"></ellipse>
                        <ellipse id="Oval" cx="35.3623188" cy="35.1515152" rx="1.76811594" ry="1.75757576"></ellipse>
                        <ellipse id="Oval" cx="53.4855072" cy="13.6212121" rx="3.0942029" ry="3.07575758"></ellipse>
                        <ellipse id="Oval" cx="52.1594203" cy="21.969697" rx="2.65217391" ry="2.63636364"></ellipse>
                        <ellipse id="Oval" cx="49.9492754" cy="27.6818182" rx="2.21014493" ry="2.1969697"></ellipse>
                        <ellipse id="Oval" cx="46.8550725" cy="32.5151515" rx="1.76811594" ry="1.75757576"></ellipse>
                        <ellipse id="Oval" cx="43.3188406" cy="36.030303" rx="1.76811594" ry="1.75757576"></ellipse>
                        <ellipse id="Oval" cx="39.3405797" cy="38.2272727" rx="1.32608696" ry="1.31818182"></ellipse>
                        <ellipse id="Oval" cx="58.3478261" cy="23.7272727" rx="2.65217391" ry="2.63636364"></ellipse>
                        <ellipse id="Oval" cx="56.1376812" cy="30.3181818" rx="2.21014493" ry="2.1969697"></ellipse>
                        <ellipse id="Oval" cx="53.0434783" cy="35.1515152" rx="1.76811594" ry="1.75757576"></ellipse>
                        <ellipse id="Oval" cx="49.5072464" cy="38.6666667" rx="1.76811594" ry="1.75757576"></ellipse>
                        <ellipse id="Oval" cx="45.5289855" cy="40.8636364" rx="1.32608696" ry="1.31818182"></ellipse>
                        <ellipse id="Oval" cx="42.8768116" cy="41.7424242" rx="1.32608696" ry="1.31818182"></ellipse>
                        <ellipse id="Oval" cx="48.6231884" cy="52.7272727" rx="3.53623188" ry="3.51515152"></ellipse>
                        <ellipse id="Oval" cx="39.3405797" cy="48.7727273" rx="3.0942029" ry="3.07575758"></ellipse>
                        <ellipse id="Oval" cx="33.5942029" cy="43.9393939" rx="2.65217391" ry="2.63636364"></ellipse>
                        <ellipse id="Oval" cx="28.7318841" cy="39.1060606" rx="2.21014493" ry="2.1969697"></ellipse>
                        <ellipse id="Oval" cx="26.5217391" cy="34.2727273" rx="1.76811594" ry="1.75757576"></ellipse>
                        <ellipse id="Oval" cx="25.6376812" cy="29" rx="1.76811594" ry="1.75757576"></ellipse>
                        <ellipse id="Oval" cx="34.9202899" cy="54.9242424" rx="3.0942029" ry="3.07575758"></ellipse>
                        <ellipse id="Oval" cx="28.2898551" cy="50.0909091" rx="2.65217391" ry="2.63636364"></ellipse>
                        <ellipse id="Oval" cx="24.3115942" cy="45.2575758" rx="2.21014493" ry="2.1969697"></ellipse>
                        <ellipse id="Oval" cx="21.2173913" cy="40.4242424" rx="1.76811594" ry="1.75757576"></ellipse>
                        <ellipse id="Oval" cx="20.3333333" cy="35.1515152" rx="1.76811594" ry="1.75757576"></ellipse>
                        <ellipse id="Oval" cx="20.7753623" cy="31.1969697" rx="1.32608696" ry="1.31818182"></ellipse>
                        <ellipse id="Oval" cx="22.9855072" cy="54.4848485" rx="2.65217391" ry="2.63636364"></ellipse>
                        <ellipse id="Oval" cx="19.0072464" cy="49.6515152" rx="2.21014493" ry="2.1969697"></ellipse>
                        <ellipse id="Oval" cx="16.7971014" cy="43.9393939" rx="1.76811594" ry="1.75757576"></ellipse>
                        <ellipse id="Oval" cx="15.0289855" cy="39.5454545" rx="1.76811594" ry="1.75757576"></ellipse>
                        <ellipse id="Oval" cx="15.4710145" cy="35.5909091" rx="1.32608696" ry="1.31818182"></ellipse>
                        <ellipse id="Oval" cx="15.4710145" cy="32.0757576" rx="1.32608696" ry="1.31818182"></ellipse>
                        <ellipse id="Oval" cx="3.53623188" cy="31.6363636" rx="3.53623188" ry="3.51515152"></ellipse>
                        <ellipse id="Oval" cx="11.0507246" cy="25.9242424" rx="3.0942029" ry="3.07575758"></ellipse>
                        <ellipse id="Oval" cx="18.5652174" cy="22.8484848" rx="2.65217391" ry="2.63636364"></ellipse>
                        <ellipse id="Oval" cx="25.1956522" cy="21.530303" rx="2.21014493" ry="2.1969697"></ellipse>
                        <ellipse id="Oval" cx="30.942029" cy="21.969697" rx="1.76811594" ry="1.75757576"></ellipse>
                        <ellipse id="Oval" cx="35.3623188" cy="23.7272727" rx="1.76811594" ry="1.75757576"></ellipse>
                        <path d="M7.50193694,15.9504269 C8.69970569,15.589707 9.99810439,15.9819088 10.7915342,16.9441017 C11.584964,17.9062945 11.717122,19.2489298 11.1263672,20.3457759 C10.5356123,21.4426219 9.33832122,22.077604 8.0929341,21.9545538 C6.84754698,21.8315037 5.79940072,20.9746617 5.43737147,19.7836761 C5.1992795,19.0031821 5.28309566,18.1606056 5.67035277,17.4415909 C6.05760988,16.7225761 6.7165312,16.1861226 7.50193694,15.9504269 Z" id="Path"></path>
                        <ellipse id="Oval" cx="15.0289855" cy="15.8181818" rx="2.65217391" ry="2.63636364"></ellipse>
                        <ellipse id="Oval" cx="21.6594203" cy="14.5" rx="2.21014493" ry="2.1969697"></ellipse>
                        <ellipse id="Oval" cx="27.4057971" cy="14.9393939" rx="1.76811594" ry="1.75757576"></ellipse>
                        <ellipse id="Oval" cx="32.7101449" cy="15.8181818" rx="1.76811594" ry="1.75757576"></ellipse>
                        <ellipse id="Oval" cx="35.8043478" cy="18.0151515" rx="1.32608696" ry="1.31818182"></ellipse>
                        <ellipse id="Oval" cx="14.1449275" cy="8.78787879" rx="2.65217391" ry="2.63636364"></ellipse>
                        <path d="M20.6103795,6.15772956 C21.8276316,6.06728518 22.8881905,6.97473239 22.9792466,8.18460604 C23.0703028,9.39447968 22.1573776,10.4486589 20.9401345,10.5392236 C19.7228914,10.6297883 18.6622418,9.72244587 18.5710646,8.51258123 C18.483264,7.30365779 19.3945663,6.25135253 20.6103795,6.15772956 Z" id="Path"></path>
                        <ellipse id="Oval" cx="26.5217391" cy="7.90909091" rx="1.76811594" ry="1.75757576"></ellipse>
                        <ellipse id="Oval" cx="30.942029" cy="9.66666667" rx="1.76811594" ry="1.75757576"></ellipse>
                        <ellipse id="Oval" cx="34.9202899" cy="11.8636364" rx="1.32608696" ry="1.31818182"></ellipse>
                        <path d="M37.4783833,12.306507 C38.2071547,12.2541729 38.8409094,12.7988313 38.8948728,13.5238596 C38.9488362,14.2488878 38.4026302,14.880494 37.6740612,14.935547 C36.9454922,14.9905999 36.3096892,14.4483101 36.2529937,13.7234883 C36.2171419,13.3718406 36.3280478,13.020979 36.5597427,12.7530582 C36.7914376,12.4851375 37.1235747,12.3236857 37.4783833,12.306507 Z" id="Path"></path>
                    </g>
                </g>
            </g>
            <path d="M217.827406,84.8753691 L220.550762,96.8054253 L217.926164,107.846728 L229.2374,104.44562 L240.576357,107.746993 L236.934373,97.040285 L240.775301,84.9333578 L229.232809,87.650768 L217.827406,84.8753691 Z" id="Rectangle-Copy-35" stroke="#FFFFFF" stroke-width="5" fill-rule="nonzero" transform="translate(229.490381, 96.490381) rotate(-330.000000) translate(-229.490381, -96.490381) "></path>
            <polygon id="Rectangle-Copy-36" fill="#FFFFFF" fill-rule="nonzero" transform="translate(397.660254, 285.660254) rotate(-330.000000) translate(-397.660254, -285.660254) " points="387.660254 275.660254 397.494953 278.053437 407.660254 275.660254 404.377198 286.008722 407.660254 295.660254 397.499216 292.701836 387.660254 295.660254 389.989221 285.86263"></polygon>
        </g>
    </g>
</svg>