<?xml version="1.0" encoding="UTF-8"?>
<svg width="500px" height="500px" viewBox="0 0 500 500" version="1.1" xmlns="http://www.w3.org/2000/svg" xmlns:xlink="http://www.w3.org/1999/xlink">
    <!-- Generator: Sketch 52.4 (67378) - http://www.bohemiancoding.com/sketch -->
    <title>webpage</title>
    <desc>Created with Sketch.</desc>
    <defs>
        <radialGradient cx="0%" cy="0%" fx="0%" fy="0%" r="141.421356%" id="radialGradient-1">
            <stop stop-color="#FFFFFF" stop-opacity="0.05" offset="0%"></stop>
            <stop stop-color="#FFFFFF" stop-opacity="0" offset="100%"></stop>
        </radialGradient>
    </defs>
    <g id="Mockups-Events" stroke="none" stroke-width="1" fill="none" fill-rule="evenodd">
        <g id="webpage">
            <rect id="Rectangle-Copy-4" fill="url(#radialGradient-1)" fill-rule="nonzero" x="0" y="0" width="500" height="500" rx="250"></rect>
            <circle id="Oval-Copy-17" stroke="#FFFFFF" stroke-width="5" fill-rule="nonzero" cx="84" cy="154" r="15"></circle>
            <circle id="Oval-Copy-16" fill="#FFFFFF" fill-rule="nonzero" cx="139" cy="401" r="10"></circle>
            <path d="M359.827406,88.8753691 L362.550762,100.805425 L359.926164,111.846728 L371.2374,108.44562 L382.576357,111.746993 L378.934373,101.040285 L382.775301,88.9333578 L371.232809,91.650768 L359.827406,88.8753691 Z" id="Rectangle-Copy-35" stroke="#FFFFFF" stroke-width="5" fill-rule="nonzero" transform="translate(371.490381, 100.490381) rotate(-330.000000) translate(-371.490381, -100.490381) "></path>
            <polygon id="Rectangle-Copy-36" fill="#FFFFFF" fill-rule="nonzero" transform="translate(391.660254, 330.660254) rotate(-330.000000) translate(-391.660254, -330.660254) " points="381.660254 320.660254 391.494953 323.053437 401.660254 320.660254 398.377198 331.008722 401.660254 340.660254 391.499216 337.701836 381.660254 340.660254 383.989221 330.86263"></polygon>
            <path d="M329,150 L149,150 C143.48405,150.016276 139.016276,154.48405 139,160 L139,340 C139.016276,345.51595 143.48405,349.983724 149,350 L329,350 C334.51595,349.983724 338.983724,345.51595 339,340 L339,160 C338.983724,154.48405 334.51595,150.016276 329,150 Z" id="Path-Copy-6" fill="#000000" fill-rule="nonzero" opacity="0.100000001"></path>
            <polygon id="Path" fill="#78B9EB" points="228.666667 223.333333 275.333333 223.333333 275.333333 270 228.666667 270"></polygon>
            <polygon id="Path" fill="#78B9EB" points="168.666667 223.333333 215.333333 223.333333 215.333333 270 168.666667 270"></polygon>
            <polygon id="Path" fill="#78B9EB" points="288.666667 223.333333 335.333333 223.333333 335.333333 270 288.666667 270"></polygon>
            <polygon id="Path" fill="#78B9EB" points="168.666667 183.333333 335.333333 183.333333 335.333333 203.333333 168.666667 203.333333"></polygon>
            <path d="M342,143.333333 L162,143.333333 C158.318359,143.333333 155.333333,146.318359 155.333333,150 L155.333333,163.333333 L348.666667,163.333333 L348.666667,150 C348.666667,146.318359 345.681641,143.333333 342,143.333333 Z" id="Path" fill="#78B9EB"></path>
            <path d="M342,140 L162,140 C156.48405,140.016276 152.016276,144.48405 152,150 L152,330 C152.016276,335.51595 156.48405,339.983724 162,340 L342,340 C347.51595,339.983724 351.983724,335.51595 352,330 L352,150 C351.983724,144.48405 347.51595,140.016276 342,140 Z" id="Path" fill="#FFFFFF" fill-rule="nonzero"></path>
            <path d="M345.333333,330 C345.333333,331.84082 343.84082,333.333333 342,333.333333 L162,333.333333 C160.15918,333.333333 158.666667,331.84082 158.666667,330 L158.666667,166.666667 L345.333333,166.666667 L345.333333,330 Z" id="Path" fill="#000000" fill-rule="nonzero" opacity="0.100000001"></path>
            <path d="M345.333333,160 L158.666667,160 L158.666667,150 C158.666667,148.15918 160.15918,146.666667 162,146.666667 L342,146.666667 C343.84082,146.666667 345.333333,148.15918 345.333333,150 L345.333333,160 Z" id="Path" fill="#000000" fill-rule="nonzero" opacity="0.100000001"></path>
            <polygon id="Path" fill="#F25F60" points="165.333333 150 172 150 172 156.666667 165.333333 156.666667"></polygon>
            <polygon id="Path" fill="#F25F60" points="182 150 188.666667 150 188.666667 156.666667 182 156.666667"></polygon>
            <polygon id="Path" fill="#F25F60" points="198.666667 150 205.333333 150 205.333333 156.666667 198.666667 156.666667"></polygon>
            <path d="M275.333333,220 L228.666667,220 C226.825846,220 225.333333,221.492513 225.333333,223.333333 L225.333333,270 C225.333333,271.84082 226.825846,273.333333 228.666667,273.333333 L275.333333,273.333333 C277.174154,273.333333 278.666667,271.84082 278.666667,270 L278.666667,223.333333 C278.666667,221.492513 277.174154,220 275.333333,220 Z" id="Path" fill="#000000" fill-rule="nonzero" opacity="0.100000001"></path>
            <polygon id="Path" fill="#F25F60" fill-rule="nonzero" points="272 266.666667 232 266.666667 232 226.666667 272 226.666667"></polygon>
            <path d="M215.333333,220 L168.666667,220 C166.825846,220 165.333333,221.492513 165.333333,223.333333 L165.333333,270 C165.333333,271.84082 166.825846,273.333333 168.666667,273.333333 L215.333333,273.333333 C217.174154,273.333333 218.666667,271.84082 218.666667,270 L218.666667,223.333333 C218.666667,221.492513 217.174154,220 215.333333,220 Z" id="Path" fill="#000000" fill-rule="nonzero" opacity="0.100000001"></path>
            <polygon id="Path" fill="#F25F60" fill-rule="nonzero" points="212 266.666667 172 266.666667 172 226.666667 212 226.666667"></polygon>
            <path d="M335.333333,220 L288.666667,220 C286.825846,220 285.333333,221.492513 285.333333,223.333333 L285.333333,270 C285.333333,271.84082 286.825846,273.333333 288.666667,273.333333 L335.333333,273.333333 C337.174154,273.333333 338.666667,271.84082 338.666667,270 L338.666667,223.333333 C338.666667,221.492513 337.174154,220 335.333333,220 Z" id="Path" fill="#000000" fill-rule="nonzero" opacity="0.100000001"></path>
            <polygon id="Path" fill="#F25F60" fill-rule="nonzero" points="332 266.666667 292 266.666667 292 226.666667 332 226.666667"></polygon>
            <polygon id="Path" fill="#000000" opacity="0.100000001" points="228.666667 286.666667 275.333333 286.666667 275.333333 293.333333 228.666667 293.333333"></polygon>
            <polygon id="Path" fill="#000000" opacity="0.100000001" points="228.666667 300 275.333333 300 275.333333 306.666667 228.666667 306.666667"></polygon>
            <polygon id="Path" fill="#000000" opacity="0.100000001" points="228.666667 313.333333 275.333333 313.333333 275.333333 320 228.666667 320"></polygon>
            <polygon id="Path" fill="#000000" opacity="0.100000001" points="288.666667 286.666667 335.333333 286.666667 335.333333 293.333333 288.666667 293.333333"></polygon>
            <polygon id="Path" fill="#000000" opacity="0.100000001" points="288.666667 300 335.333333 300 335.333333 306.666667 288.666667 306.666667"></polygon>
            <polygon id="Path" fill="#000000" opacity="0.100000001" points="288.666667 313.333333 335.333333 313.333333 335.333333 320 288.666667 320"></polygon>
            <polygon id="Path" fill="#000000" opacity="0.100000001" points="168.666667 286.666667 215.333333 286.666667 215.333333 293.333333 168.666667 293.333333"></polygon>
            <polygon id="Path" fill="#000000" opacity="0.100000001" points="168.666667 300 215.333333 300 215.333333 306.666667 168.666667 306.666667"></polygon>
            <polygon id="Path" fill="#000000" opacity="0.100000001" points="168.666667 313.333333 215.333333 313.333333 215.333333 320 168.666667 320"></polygon>
            <path d="M335.333333,180 L168.666667,180 C166.825846,180 165.333333,181.492513 165.333333,183.333333 L165.333333,203.333333 C165.333333,205.174154 166.825846,206.666667 168.666667,206.666667 L335.333333,206.666667 C337.174154,206.666667 338.666667,205.174154 338.666667,203.333333 L338.666667,183.333333 C338.666667,181.492513 337.174154,180 335.333333,180 Z" id="Path" fill="#000000" fill-rule="nonzero" opacity="0.100000001"></path>
            <polygon id="Path" fill="#F25F60" fill-rule="nonzero" points="332 200 172 200 172 186.666667 332 186.666667"></polygon>
        </g>
    </g>
</svg>